…
-----

## Question 1: What specialties do we have?

We can use `count()` from `dplyr` to figure out how many different
catagories do we have? Are these catagories related? overlapping? evenly
distributed?

``` r
mt_samples %>%
  count(medical_specialty, sort = TRUE)
```

    ## # A tibble: 40 x 2
    ##    medical_specialty                 n
    ##    <chr>                         <int>
    ##  1 Surgery                        1103
    ##  2 Consult - History and Phy.      516
    ##  3 Cardiovascular / Pulmonary      372
    ##  4 Orthopedic                      355
    ##  5 Radiology                       273
    ##  6 General Medicine                259
    ##  7 Gastroenterology                230
    ##  8 Neurology                       223
    ##  9 SOAP / Chart / Progress Notes   166
    ## 10 Obstetrics / Gynecology         160
    ## # ... with 30 more rows
…
``` r
# pick history to look at
mt_bigrams <- mt_samples %>%
  unnest_ngrams(token, transcription, n = 2) %>%
  separate(token, into = c("word1", "word2"), sep = " ")%>%
  select(word1, word2) 

mt_bigrams %>%
  filter(word1 == "history") %>%
  count(word2, sort = TRUE)
```

    ## # A tibble: 369 x 2
    ##    word2               n
    ##    <chr>           <int>
    ##  1 of               4537
    ##  2 the               761
    ##  3 she               279
    ##  4 he                227
    ##  5 significant       200
    ##  6 this              200
    ##  7 and               197
    ##  8 1                 181
    ##  9 is                172
    ## 10 noncontributory   121
    ## # ... with 359 more rows

``` r
mt_bigrams %>%
  filter(word2 == "history") %>%
  count(word1, sort = TRUE)
```

    ## # A tibble: 567 x 2
    ##    word1        n
    ##    <chr>    <int>
    ##  1 medical   1223
    ##  2 family     941
    ##  3 a          939
    ##  4 social     865
    ##  5 surgical   491
    ##  6 no         473
    ##  7 with       163
    ##  8 any        129
    ##  9 brief      125
    ## 10 the        107
    ## # ... with 557 more rows

``` r
mt_bigrams %>%
  anti_join(tidytext::stop_words, by = c("word1" = "word")) %>%
  anti_join(tidytext::stop_words, by = c("word2" = "word")) %>%
  count(word1, word2, sort = TRUE)
```

    ## # A tibble: 128,013 x 3
    ##    word1         word2           n
    ##    <chr>         <chr>       <int>
    ##  1 0             vicryl       1802
    ##  2 blood         pressure     1265
    ##  3 medical       history      1223
    ##  4 diagnoses     1            1192
    ##  5 preoperative  diagnosis    1176
    ##  6 physical      examination  1156
    ##  7 4             0            1123
    ##  8 vital         signs        1117
    ##  9 past          medical      1113
    ## 10 postoperative diagnosis    1092
    ## # ... with 128,003 more rows
…
Which words are most used in each of the specialties. you can use
`group_by()` and `top_n()` from `dplyr` to have the calculations be done
within each specialty. Remember to remove stopwords. How about the most
5 used words?

``` r
mt_samples %>%
  unnest_tokens(token, transcription) %>%
  anti_join(tidytext::stop_words, by = c("token" = "word")) %>%
  group_by(medical_specialty) %>%
  count(token, sort = TRUE) %>%
  top_n(1,n)
```

    ## # A tibble: 41 x 3
    ## # Groups:   medical_specialty [40]
    ##    medical_specialty          token       n
    ##    <chr>                      <chr>   <int>
    ##  1 Surgery                    patient  4855
    ##  2 Consult - History and Phy. patient  3046
    ##  3 Orthopedic                 patient  1711
    ##  4 Cardiovascular / Pulmonary left     1550
    ##  5 General Medicine           patient  1356
    ##  6 Gastroenterology           patient   872
    ##  7 Urology                    patient   776
    ##  8 Radiology                  left      701
    ##  9 Emergency Room Reports     patient   685
    ## 10 Discharge Summary          patient   672
    ## # ... with 31 more rows

``` r
mt_samples %>%
  unnest_tokens(token, transcription) %>%
  anti_join(tidytext::stop_words, by = c("token" = "word")) %>%
  group_by(medical_specialty) %>%
  count(token, sort = TRUE) %>%
  top_n(5,n)
```

    ## # A tibble: 209 x 3
    ## # Groups:   medical_specialty [40]
    ##    medical_specialty          token         n
    ##    <chr>                      <chr>     <int>
    ##  1 Surgery                    patient    4855
    ##  2 Surgery                    left       3263
    ##  3 Surgery                    procedure  3243
    ##  4 Consult - History and Phy. patient    3046
    ##  5 Consult - History and Phy. history    2820
    ##  6 Surgery                    0          2094
    ##  7 Surgery                    1          2038
    ##  8 Orthopedic                 patient    1711
    ##  9 Cardiovascular / Pulmonary left       1550
    ## 10 Cardiovascular / Pulmonary patient    1516
    ## # ... with 199 more rows
…
